Software/performance_testbench.vcd
$date
	Sun May 25 08:43:26 2025
$end
$version
	Icarus Verilog
$end
$timescale
	1ps
$end
$scope module performance_testbench $end
$var wire 1 ! alu_slow_ready $end
$var wire 1 " branch_predict $end
$var wire 32 # imm_result [31:0] $end
$var wire 1 $ branch_taken $end
$var wire 1 % alu_zero $end
$var wire 32 & alu_result [31:0] $end
$var wire 1 ' alu_fast_ready $end
$var reg 4 ( alu_op [3:0] $end
$var reg 32 ) alu_src1 [31:0] $end
$var reg 32 * alu_src2 [31:0] $end
$var reg 32 + benchmark_select [31:0] $end
$var reg 3 , branch_funct3 [2:0] $end
$var reg 32 - branch_rs1 [31:0] $end
$var reg 32 . branch_rs2 [31:0] $end
$var reg 1 / clk $end
$var reg 32 0 cycle_count [31:0] $end
$var reg 32 1 imm_instruction [31:0] $end
$var reg 32 2 pass_count [31:0] $end
$var reg 1 3 rst_n $end
$var reg 32 4 test_count [31:0] $end
$scope module alu_test $end
$var wire 4 5 alu_op [3:0] $end
$var wire 32 6 and_result [31:0] $end
$var wire 1 ' fast_ready $end
$var wire 1 7 is_compare_op $end
$var wire 1 8 is_fast_op $end
$var wire 1 9 is_logic_op $end
$var wire 1 : is_shift_op $end
$var wire 32 ; or_result [31:0] $end
$var wire 32 < pass_a_result [31:0] $end
$var wire 32 = pass_b_result [31:0] $end
$var wire 32 > signed_src1 [31:0] $end
$var wire 32 ? signed_src2 [31:0] $end
$var wire 1 ! slow_ready $end
$var wire 32 @ src1 [31:0] $end
$var wire 32 A src2 [31:0] $end
$var wire 32 B xor_result [31:0] $end
$var wire 1 % zero $end
$var wire 32 C sub_result [31:0] $end
$var wire 32 D srl_result [31:0] $end
$var wire 32 E sra_result [31:0] $end
$var wire 1 F sltu_result $end
$var wire 1 G slt_result $end
$var wire 32 H slow_result [31:0] $end
$var wire 32 I sll_result [31:0] $end
$var wire 32 J shift_result [31:0] $end
$var wire 5 K shamt [4:0] $end
$var wire 32 L result [31:0] $end
$var wire 32 M fast_result [31:0] $end
$var wire 32 N fast_pass_result [31:0] $end
$var wire 32 O fast_logic_result [31:0] $end
$var wire 32 P fast_arith_result [31:0] $end
$var wire 32 Q compare_result [31:0] $end
$var wire 32 R add_result [31:0] $end
$var parameter 4 S ALU_ADD $end
$var parameter 4 T ALU_AND $end
$var parameter 4 U ALU_OR $end
$var parameter 4 V ALU_PASS_A $end
$var parameter 4 W ALU_PASS_B $end
$var parameter 4 X ALU_SLL $end
$var parameter 4 Y ALU_SLT $end
$var parameter 4 Z ALU_SLTU $end
$var parameter 4 [ ALU_SRA $end
$var parameter 4 \ ALU_SRL $end
$var parameter 4 ] ALU_SUB $end
$var parameter 4 ^ ALU_XOR $end
$var parameter 32 _ DATA_WIDTH $end
$upscope $end
$scope module branch_test $end
$var wire 3 ` funct3 [2:0] $end
$var wire 1 a ne_result $end
$var wire 1 " predict_taken $end
$var wire 32 b rs1_data [31:0] $end
$var wire 32 c rs2_data [31:0] $end
$var wire 1 d sge_result $end
$var wire 32 e signed_rs1 [31:0] $end
$var wire 32 f signed_rs2 [31:0] $end
$var wire 1 g uge_result $end
$var wire 1 h ult_result $end
$var wire 1 i slt_result $end
$var wire 1 j eq_result $end
$var wire 6 k comparison_results [5:0] $end
$var wire 1 $ branch_taken $end
$var parameter 3 l BEQ $end
$var parameter 3 m BGE $end
$var parameter 3 n BGEU $end
$var parameter 3 o BLT $end
$var parameter 3 p BLTU $end
$var parameter 3 q BNE $end
$upscope $end
$scope module imm_test $end
$var wire 32 r instruction [31:0] $end
$var wire 1 s sel_ab $end
$var wire 1 t sel_cd $end
$var wire 1 u sel_i $end
$var wire 1 v sel_u $end
$var wire 32 w u_imm [31:0] $end
$var wire 1 x sel_s $end
$var wire 1 y sel_j $end
$var wire 1 z sel_b $end
$var wire 12 { s_imm_parts [11:0] $end
$var wire 32 | s_imm [31:0] $end
$var wire 32 } result_cd [31:0] $end
$var wire 32 ~ result_ab [31:0] $end
$var wire 7 !" opcode [6:0] $end
$var wire 32 "" mux_c [31:0] $end
$var wire 32 #" mux_b [31:0] $end
$var wire 32 $" mux_a [31:0] $end
$var wire 20 %" j_imm_parts [19:0] $end
$var wire 32 &" j_imm [31:0] $end
$var wire 32 '" immediate [31:0] $end
$var wire 32 (" i_imm [31:0] $end
$var wire 12 )" b_imm_parts [11:0] $end
$var wire 32 *" b_imm [31:0] $end
$var parameter 32 +" DATA_WIDTH $end
$upscope $end
$scope task display_performance_results $end
$var real 1 ," benchmark_score $end
$var real 1 -" cpi_estimate $end
$var real 1 ." frequency_mhz $end
$var real 1 /" mips_estimate $end
$upscope $end
$scope task test_alu_performance $end
$var reg 32 0" end_cycle [31:0] $end
$var reg 32 1" start_cycle [31:0] $end
$var integer 32 2" i [31:0] $end
$upscope $end
$scope task test_branch_performance $end
$var reg 32 3" end_cycle [31:0] $end
$var reg 32 4" start_cycle [31:0] $end
$var integer 32 5" i [31:0] $end
$upscope $end
$scope task test_dhrystone_simulation $end
$var reg 32 6" dhrystone_iterations [31:0] $end
$var reg 32 7" end_cycle [31:0] $end
$var reg 32 8" start_cycle [31:0] $end
$var integer 32 9" i [31:0] $end
$upscope $end
$scope task test_fibonacci_performance $end
$var reg 32 :" end_cycle [31:0] $end
$var reg 32 ;" fib_a [31:0] $end
$var reg 32 <" fib_b [31:0] $end
$var reg 32 =" fib_c [31:0] $end
$var reg 32 >" start_cycle [31:0] $end
$var integer 32 ?" i [31:0] $end
$upscope $end
$scope task test_immediate_performance $end
$var reg 32 @" end_cycle [31:0] $end
$var reg 32 A" start_cycle [31:0] $end
$var integer 32 B" i [31:0] $end
$upscope $end
$scope task test_memory_intensive $end
$var reg 32 C" end_cycle [31:0] $end
$var reg 32 D" start_cycle [31:0] $end
$var integer 32 E" i [31:0] $end
$upscope $end
$scope task test_sorting_performance $end
$var reg 32 F" end_cycle [31:0] $end
$var reg 32 G" start_cycle [31:0] $end
$var reg 32 H" temp [31:0] $end
$var integer 32 I" i [31:0] $end
$var integer 32 J" j [31:0] $end
$upscope $end
$scope task test_whetstone_simulation $end
$var reg 32 K" end_cycle [31:0] $end
$var reg 32 L" start_cycle [31:0] $end
$var reg 32 M" whetstone_iterations [31:0] $end
$var integer 32 N" i [31:0] $end
$upscope $end
$upscope $end
$enddefinitions $end
$comment Show the parameter values. $end
$dumpall
b100000 +"
b1 q
b110 p
b100 o
b111 n
b101 m
b0 l
b100000 _
b100 ^
b1 ]
b110 \
b111 [
b1001 Z
b1000 Y
b101 X
b1011 W
b1010 V
b11 U
b10 T
b0 S
$end
#0
$dumpvars
bx N"
bx M"
bx L"
bx K"
bx J"
bx I"
bx H"
bx G"
bx F"
bx E"
bx D"
bx C"
bx B"
bx A"
bx @"
bx ?"
bx >"
bx ="
bx <"
bx ;"
bx :"
bx 9"
bx 8"
bx 7"
bx 6"
bx 5"
bx 4"
bx 3"
bx 2"
bx 1"
bx 0"
r0 /"
r0 ."
r0 -"
r0 ,"
bx0 *"
bx )"
bx ("
bx '"
bx0 &"
bx %"
bx $"
bx0 #"
bx000000000000 ""
bx !"
bx ~
bx0 }
bx |
bx {
xz
xy
xx
bx000000000000 w
xv
xu
xt
xs
bx r
bx k
xj
xi
xh
xg
bx f
bx e
xd
bx c
bx b
xa
bx `
bx R
b0x Q
bx P
bx O
bx N
bx M
bx L
bx K
bx J
bx I
bx H
xG
xF
bx E
bx D
bx C
bx B
bx A
bx @
bx ?
bx >
bx =
bx <
bx ;
x:
x9
x8
x7
bx 6
bx 5
b0 4
03
b0 2
bx 1
b0 0
0/
bx .
bx -
bx ,
b1000 +
bx *
bx )
bx (
x'
bx &
x%
x$
bx #
1"
1!
$end
#12500
1/
#25000
0/
#37500
1/
#50000
0/
13
#62500
b1 0
1/
#75000
0/
#87500
b10 0
1/
#100000
0/
#112500
b11 0
1/
#125000
0/
#137500
b100 0
1/
#150000
1'
0%
b11010010100111101001001110100101 &
b11010010100111101001001110100101 L
18
b11010010100111101001001110100101 M
09
0:
b0 Q
b1001000010101001101010010010 H
b1001000010101001101010010010 J
b11010010100111000110101110100101 O
07
b11010010100111101001001110100101 P
b100100001010100110101001001000 I
b1001000010101001101010010010 D
b1001000010101001101010010010 E
b1 K
b10001010000000000 6
b11010010100111010111111110100101 ;
b11010010100111000110101110100101 B
b10010000101010011010100100100 N
0/
b0 (
b0 5
b11000000100010010101111010000001 =
b11010010100111101001001110100101 R
b1010001100010111101011010100011 C
0G
1F
b11000000100010010101111010000001 *
b11000000100010010101111010000001 ?
b11000000100010010101111010000001 A
b10010000101010011010100100100 <
b10010000101010011010100100100 )
b10010000101010011010100100100 >
b10010000101010011010100100100 @
b0 N"
b100 L"
b1100100 M"
#162500
b101 0
0'
1%
08
b0 &
b0 L
b10010000101010011010100100100 M
b0 H
17
b1000 (
b1000 5
1/
#175000
0/
#187500
b110 0
0%
b1001000010101001101010010010 &
b1001000010101001101010010010 L
1:
b10001010000000000 O
b1001000010101001101010010010 H
07
b110 (
b110 5
1/
#200000
0/
#212500
b111 0
b11000000100010010101111010000001 M
b1010001100010111101011010100011 P
b11010010100111010111111110100101 O
b11000000100010010101111010000001 N
b1 Q
b111 (
b111 5
1/
#225000
0/
#237500
b1000 0
1'
b110110011101010010110001101100 &
b110110011101010010110001101100 L
18
b110101011101001000000001101010 O
b11110000100100001001101011000001 H
b110110011101010010110001101100 M
b11110000100100001001101011000001 J
0:
b10000100100001001101011000001001 N
b11 K
b10000000100000000101011000000001 6
b10110101111101001101011001101011 ;
b110101011101001000000001101010 B
b110110011101010010110001101100 P
b0 (
b0 5
b10110001111100000101011001100011 =
b10110001111100000101011001100011 *
b10110001111100000101011001100011 ?
b10110001111100000101011001100011 A
b10000100100001001101011000001001 <
b110110011101010010110001101100 R
b11010010100101000111111110100110 C
b100100001001101011000001001000 I
b10000100100001001101011000001 D
b11110000100100001001101011000001 E
1G
b10000100100001001101011000001001 )
b10000100100001001101011000001001 >
b10000100100001001101011000001001 @
b1 N"
b100 2
b100 4
1/
#250000
0/
#262500
b1001 0
0'
08
b1 &
b1 L
b10000100100001001101011000001001 M
b1 H
17
b1000 (
b1000 5
1/
#275000
0/
#287500
b1010 0
b10000100100001001101011000001 &
b10000100100001001101011000001 L
b10000100100001001101011000001 J
1:
b10000000100000000101011000000001 O
b10000100100001001101011000001 H
07
b110 (
b110 5
1/
#300000
0/
#312500
b1011 0
b11110000100100001001101011000001 &
b11110000100100001001101011000001 L
b11110000100100001001101011000001 H
b10110001111100000101011001100011 M
b11110000100100001001101011000001 J
b11010010100101000111111110100110 P
b10110101111101001101011001101011 O
b10110001111100000101011001100011 N
b111 (
b111 5
1/
#325000
0/
#337500
b1100 0
1'
b1001101100110010001010010011010 &
b1001101100110010001010010011010 L
18
b1000000011001101110001010000000 O
b11010111001011 H
b1001101100110010001010010011010 M
b11010111001011 J
0:
b110101110010111101100001101 N
b1101 K
b110100110010001100100001101 6
b1000110111111111111101110001101 ;
b1000000011001101110001010000000 B
b1001101100110010001010010011010 P
b0 (
b0 5
b1000110110111111001100110001101 =
b1000110110111111001100110001101 *
b1000110110111111001100110001101 ?
b1000110110111111001100110001101 A
b110101110010111101100001101 <
b1001101100110010001010010011010 R
b10111111110110011110000110000000 C
b101111011000011010000000000000 I
b11010111001011 D
b11010111001011 E
1G
b110101110010111101100001101 )
b110101110010111101100001101 >
b110101110010111101100001101 @
b10 N"
b1000 2
b1000 4
1/
#350000
0/
#362500
b1101 0
0'
08
b1 &
b1 L
b110101110010111101100001101 M
b1 H
17
b1000 (
b1000 5
1/
#375000
0/
#387500
b1110 0
b11010111001011 &
b11010111001011 L
1:
b110100110010001100100001101 O
b11010111001011 H
07
b110 (
b110 5
1/
#400000
0/
#412500
b1111 0
b1000110110111111001100110001101 M
b10111111110110011110000110000000 P
b1000110111111111111101110001101 O
b1000110110111111001100110001101 N
b111 (
b111 5
1/
#425000
0/
#437500
b10000 0
1'
b111011111110011101011001110111 &
b111011111110011101011001110111 L
18
b111011111101011101011001110111 O
b11111111111111111110110010110000 H
b111011111110011101011001110111 M
b11111111111111111110110010110000 J
0:
b10110010110000101000010001100101 N
b10010 K
b10000000000000100000000000000000 6
b10111011111101111101011001110111 ;
b111011111101011101011001110111 B
b111011111110011101011001110111 P
b0 Q
b0 (
b0 5
b10001001001101110101001000010010 =
0G
b10001001001101110101001000010010 *
b10001001001101110101001000010010 ?
b10001001001101110101001000010010 A
b10110010110000101000010001100101 <
b111011111110011101011001110111 R
b101001100010110011001001010011 C
b10001100101000000000000000000 I
b10110010110000 D
b11111111111111111110110010110000 E
0F
b10110010110000101000010001100101 )
b10110010110000101000010001100101 >
b10110010110000101000010001100101 @
b11 N"
b1100 2
b1100 4
1/
#450000
0/
#462500
b10001 0
0'
1%
08
b0 &
b0 L
b10110010110000101000010001100101 M
b0 H
17
b1000 (
b1000 5
1/
#475000
0/
#487500
b10010 0
0%
b10110010110000 &
b10110010110000 L
b10110010110000 J
1:
b10000000000000100000000000000000 O
b10110010110000 H
07
b110 (
b110 5
1/
#500000
0/
#512500
b10011 0
b11111111111111111110110010110000 &
b11111111111111111110110010110000 L
b11111111111111111110110010110000 H
b10001001001101110101001000010010 M
b11111111111111111110110010110000 J
b101001100010110011001001010011 P
b10111011111101111101011001110111 O
b10001001001101110101001000010010 N
b111 (
b111 5
1/
#525000
0/
#537500
b10100 0
1'
b111110010111011000000001110 &
b111110010111011000000001110 L
18
b110001001000010111000001100 O
b11110011111 H
b111110010111011000000001110 M
b11110011111 J
0:
b111100111110001100000001 N
b1101 K
b110100111100000100000001 6
b110111101111110111100001101 ;
b110001001000010111000001100 B
b111110010111011000000001110 P
b1 Q
b0 (
b0 5
b110110101111100110100001101 =
1G
b110110101111100110100001101 *
b110110101111100110100001101 ?
b110110101111100110100001101 A
b111100111110001100000001 <
b111110010111011000000001110 R
b11111010000111000001010111110100 C
b1111100011000000010000000000000 I
b11110011111 D
b11110011111 E
1F
b111100111110001100000001 )
b111100111110001100000001 >
b111100111110001100000001 @
b100 N"
b10000 2
b10000 4
1/
#550000
0/
#562500
b10101 0
0'
08
b1 &
b1 L
b111100111110001100000001 M
b1 H
17
b1000 (
b1000 5
1/
#575000
0/
#587500
b10110 0
b11110011111 &
b11110011111 L
1:
b110100111100000100000001 O
b11110011111 H
07
b110 (
b110 5
1/
#600000
0/
#612500
b10111 0
b110110101111100110100001101 M
b11111010000111000001010111110100 P
b110111101111110111100001101 O
b110110101111100110100001101 N
b111 (
b111 5
1/
#625000
0/
#637500
b11000 0
1'
b1011001101100011011111010110011 &
b1011001101100011011111010110011 L
18
b100101101011100011110001001011 O
b1 H
b1011001101100011011111010110011 M
b1 J
0:
b111011001000111111000101110110 N
b11101 K
b11010000000011100000100110100 6
b111111101011111111110101111111 ;
b100101101011100011110001001011 B
b1011001101100011011111010110011 P
b0 Q
b0 (
b0 5
b11110100011011100110100111101 =
b11110100011011100110100111101 *
b11110100011011100110100111101 ?
b11110100011011100110100111101 A
b111011001000111111000101110110 <
b1011001101100011011111010110011 R
b11100100101100010010000111001 C
b11000000000000000000000000000000 I
b1 D
b1 E
0G
0F
b111011001000111111000101110110 )
b111011001000111111000101110110 >
b111011001000111111000101110110 @
b101 N"
b10100 2
b10100 4
1/
#650000
0/
#662500
b11001 0
0'
1%
08
b0 &
b0 L
b111011001000111111000101110110 M
b0 H
17
b1000 (
b1000 5
1/
#675000
0/
#687500
b11010 0
0%
b1 &
b1 L
1:
b11010000000011100000100110100 O
b1 H
07
b110 (
b110 5
1/
#700000
0/
#712500
b11011 0
b11110100011011100110100111101 M
b11100100101100010010000111001 P
b111111101011111111110101111111 O
b11110100011011100110100111101 N
b111 (
b111 5
1/
#725000
0/
#737500
b11100 0
1'
b10111101000000100100111101111001 &
b10111101000000100100111101111001 L
18
b110000111110011010000001100001 O
b1110110110101000101 H
b10111101000000100100111101111001 M
b1110110110101000101 J
0:
b1110110110101000101011111101101 N
b1100 K
b1000110000001000101011110001100 6
b1110110111111011111011111101101 ;
b110000111110011010000001100001 B
b10111101000000100100111101111001 P
b0 (
b0 5
b1000110001011011111011110001100 =
b1000110001011011111011110001100 *
b1000110001011011111011110001100 ?
b1000110001011011111011110001100 A
b1110110110101000101011111101101 <
b10111101000000100100111101111001 R
b110000101001100110000001100001 C
b1000101011111101101000000000000 I
b1110110110101000101 D
b1110110110101000101 E
b1110110110101000101011111101101 )
b1110110110101000101011111101101 >
b1110110110101000101011111101101 @
b110 N"
b11000 2
b11000 4
1/
#750000
0/
#762500
b11101 0
0'
1%
08
b0 &
b0 L
b1110110110101000101011111101101 M
b0 H
17
b1000 (
b1000 5
1/
#775000
0/
#787500
b11110 0
0%
b1110110110101000101 &
b1110110110101000101 L
1:
b1000110000001000101011110001100 O
b1110110110101000101 H
07
b110 (
b110 5
1/
#800000
0/
#812500
b11111 0
b1000110001011011111011110001100 M
b110000101001100110000001100001 P
b1110110111111011111011111101101 O
b1000110001011011111011110001100 N
b111 (
b111 5
1/
#825000
0/
#837500
b100000 0
1'
b1100000001101010000111010111111 &
b1100000001101010000111010111111 L
18
b10011111110010101100110100111111 O
b1111100111111011110100111 H
b1100000001101010000111010111111 M
b1111100111111011110100111 J
0:
b1111100111111011110100111111001 N
b110 K
b0 Q
b1100000001101010010000011000000 6
b11111111111111111110110111111111 ;
b10011111110010101100110100111111 B
b1100000001101010000111010111111 P
b0 (
b0 5
b11100011001101110010010011000110 =
1F
b11100011001101110010010011000110 *
b11100011001101110010010011000110 ?
b11100011001101110010010011000110 A
b1111100111111011110100111111001 <
b1100000001101010000111010111111 R
b10011001110001101100010100110011 C
b111111011110100111111001000000 I
b1111100111111011110100111 D
b1111100111111011110100111 E
b1111100111111011110100111111001 )
b1111100111111011110100111111001 >
b1111100111111011110100111111001 @
b111 N"
b11100 2
b11100 4
1/
#850000
0/
#862500
b100001 0
0'
1%
08
b0 &
b0 L
b1111100111111011110100111111001 M
b0 H
17
b1000 (
b1000 5
1/
#875000
0/
#887500
b100010 0
0%
b1111100111111011110100111 &
b1111100111111011110100111 L
1:
b1100000001101010010000011000000 O
b1111100111111011110100111 H
07
b110 (
b110 5
1/
#900000
0/
#912500
b100011 0
b11100011001101110010010011000110 M
b10011001110001101100010100110011 P
b11111111111111111110110111111111 O
b11100011001101110010010011000110 N
b1 Q
b111 (
b111 5
1/
#925000
0/
#937500
b100100 0
1'
b10111000000010110101011101101111 &
b10111000000010110101011101101111 L
18
b110111111001000101011001101111 O
b11111111111110001011110111100001 H
b10111000000010110101011101101111 M
b11111111111110001011110111100001 J
0:
b11100010111101111000010011000101 N
b1010 K
b0 Q
b11000000000100111000000010000000 6
b11110111111101111101011011101111 ;
b110111111001000101011001101111 B
b10111000000010110101011101101111 P
b0 (
b0 5
b11010101000100111101001010101010 =
0F
b11010101000100111101001010101010 *
b11010101000100111101001010101010 ?
b11010101000100111101001010101010 A
b11100010111101111000010011000101 <
b10111000000010110101011101101111 R
b1101111000111011001000011011 C
b11011110000100110001010000000000 I
b1110001011110111100001 D
b11111111111110001011110111100001 E
0G
b11100010111101111000010011000101 )
b11100010111101111000010011000101 >
b11100010111101111000010011000101 @
b1000 N"
b100000 2
b100000 4
1/
#950000
0/
#962500
b100101 0
0'
1%
08
b0 &
b0 L
b11100010111101111000010011000101 M
b0 H
17
b1000 (
b1000 5
1/
#975000
0/
#987500
b100110 0
0%
b1110001011110111100001 &
b1110001011110111100001 L
b1110001011110111100001 J
1:
b11000000000100111000000010000000 O
b1110001011110111100001 H
07
b110 (
b110 5
1/
#1000000
0/
#1012500
b100111 0
b11111111111110001011110111100001 &
b11111111111110001011110111100001 L
b11111111111110001011110111100001 H
b11010101000100111101001010101010 M
b11111111111110001011110111100001 J
b1101111000111011001000011011 P
b11110111111101111101011011101111 O
b11010101000100111101001010101010 N
b111 (
b111 5
1/
#1025000
0/
#1037500
b101000 0
1'
b101110100000100110101001011100 &
b101110100000100110101001011100 L
18
b11001001011111011000010110010010 O
b11100101 H
b101110100000100110101001011100 M
b11100101 J
0:
b1110010101011111111011111100101 N
b10111 K
b110010100000100111001001100101 6
b11111011111111111111011111110111 ;
b11001001011111011000010110010010 B
b101110100000100110101001011100 P
b0 Q
b0 (
b0 5
b10111011110100100111001001110111 =
b10111011110100100111001001110111 *
b10111011110100100111001001110111 ?
b10111011110100100111001001110111 A
b1110010101011111111011111100101 <
b101110100000100110101001011100 R
b10110110110111011000010101101110 C
b11110010100000000000000000000000 I
b11100101 D
b11100101 E
1F
b1110010101011111111011111100101 )
b1110010101011111111011111100101 >
b1110010101011111111011111100101 @
b1001 N"
b100100 2
b100100 4
1/
#1050000
0/
#1062500
b101001 0
0'
1%
08
b0 &
b0 L
b1110010101011111111011111100101 M
b0 H
17
b1000 (
b1000 5
1/
#1075000
0/
#1087500
b101010 0
0%
b11100101 &
b11100101 L
1:
b110010100000100111001001100101 O
b11100101 H
07
b110 (
b110 5
1/
#1100000
0/
#1112500
b101011 0
b10111011110100100111001001110111 M
b10110110110111011000010101101110 P
b11111011111111111111011111110111 O
b10111011110100100111001001110111 N
b1 Q
b111 (
b111 5
1/
#1125000
0/
#1137500
b101100 0
1'
b11010001000111111011000110100001 &
b11010001000111111011000110100001 L
18
b11001110110111100000110110011101 O
b11111111111111110001001001100101 H
b11010001000111111011000110100001 M
b11111111111111110001001001100101 J
0:
b10001001001100101101011000010010 N
b1111 K
b1 Q
b1001000001101001000000010 6
b11001111111111101101111110011111 ;
b11001110110111100000110110011101 B
b11010001000111111011000110100001 P
b0 (
b0 5
b1000111111011001101101110001111 =
0F
b1000111111011001101101110001111 *
b1000111111011001101101110001111 ?
b1000111111011001101101110001111 A
b10001001001100101101011000010010 <
b11010001000111111011000110100001 R
b1000001010001011111101010000011 C
b1101011000010010000000000000000 I
b10001001001100101 D
b11111111111111110001001001100101 E
1G
b10001001001100101101011000010010 )
b10001001001100101101011000010010 >
b10001001001100101101011000010010 @
b1010 N"
b101000 2
b101000 4
1/
#1150000
0/
#1162500
b101101 0
0'
08
b1 &
b1 L
b10001001001100101101011000010010 M
b1 H
17
b1000 (
b1000 5
1/
#1175000
0/
#1187500
b101110 0
b10001001001100101 &
b10001001001100101 L
b10001001001100101 J
1:
b1001000001101001000000010 O
b10001001001100101 H
07
b110 (
b110 5
1/
#1200000
0/
#1212500
b101111 0
b11111111111111110001001001100101 &
b11111111111111110001001001100101 L
b11111111111111110001001001100101 H
b1000111111011001101101110001111 M
b11111111111111110001001001100101 J
b1000001010001011111101010000011 P
b11001111111111101101111110011111 O
b1000111111011001101101110001111 N
b0 Q
b111 (
b111 5
1/
#1225000
0/
#1237500
b110000 0
1'
b1100000101001110000000011000000 &
b1100000101001110000000011000000 L
18
b10011110010001101111111100111100 O
b11110010011000001 H
b1100000101001110000000011000000 M
b11110010011000001 J
0:
b1111001001100000110100111110010 N
b1110 K
b0 Q
b1100001001100000000000011000010 6
b11111111011101101111111111111110 ;
b10011110010001101111111100111100 B
b1100000101001110000000011000000 P
b0 (
b0 5
b11100111011101101001011011001110 =
1F
b11100111011101101001011011001110 *
b11100111011101101001011011001110 ?
b11100111011101101001011011001110 A
b1111001001100000110100111110010 <
b1100000101001110000000011000000 R
b10010001101110011101001100100100 C
b11010011111001000000000000000 I
b11110010011000001 D
b11110010011000001 E
0G
b1111001001100000110100111110010 )
b1111001001100000110100111110010 >
b1111001001100000110100111110010 @
b1011 N"
b101100 2
b101100 4
1/
#1250000
0/
#1262500
b110001 0
0'
1%
08
b0 &
b0 L
b1111001001100000110100111110010 M
b0 H
17
b1000 (
b1000 5
1/
#1275000
0/
#1287500
b110010 0
0%
b11110010011000001 &
b11110010011000001 L
1:
b1100001001100000000000011000010 O
b11110010011000001 H
07
b110 (
b110 5
1/
#1300000
0/
#1312500
b110011 0
b11100111011101101001011011001110 M
b10010001101110011101001100100100 P
b11111111011101101111111111111110 O
b11100111011101101001011011001110 N
b1 Q
b111 (
b111 5
1/
#1325000
0/
#1337500
b110100 0
1'
b11010110110010101100100110101101 &
b11010110110010101100100110101101 L
18
b10110110010100011010000101101 O
b11111111101000000000001111010111 H
b11010110110010101100100110101101 M
b11111111101000000000001111010111 J
0:
b11110100000000000111101011101000 N
b101 K
b11100000000000000100101011000000 6
b11110110110010100111111011101101 ;
b10110110010100011010000101101 B
b11010110110010101100100110101101 P
b0 Q
b0 (
b0 5
b11100010110010100100111011000101 =
b11100010110010100100111011000101 *
b11100010110010100100111011000101 ?
b11100010110010100100111011000101 A
b11110100000000000111101011101000 <
b11010110110010101100100110101101 R
b10001001101100010110000100011 C
b10000000000011110101110100000000 I
b111101000000000001111010111 D
b11111111101000000000001111010111 E
0F
b11110100000000000111101011101000 )
b11110100000000000111101011101000 >
b11110100000000000111101011101000 @
b1100 N"
b110000 2
b110000 4
1/
#1350000
0/
#1362500
b110101 0
0'
1%
08
b0 &
b0 L
b11110100000000000111101011101000 M
b0 H
17
b1000 (
b1000 5
1/
#1375000
0/
#1387500
b110110 0
0%
b111101000000000001111010111 &
b111101000000000001111010111 L
b111101000000000001111010111 J
1:
b11100000000000000100101011000000 O
b111101000000000001111010111 H
07
b110 (
b110 5
1/
#1400000
0/
#1412500
b110111 0
b11111111101000000000001111010111 &
b11111111101000000000001111010111 L
b11111111101000000000001111010111 H
b11100010110010100100111011000101 M
b11111111101000000000001111010111 J
b10001001101100010110000100011 P
b11110110110010100111111011101101 O
b11100010110010100100111011000101 N
b111 (
b111 5
1/
#1425000
0/
#1437500
b111000 0
1'
b1100111001100111001000011001 &
b1100111001100111001000011001 L
18
b11110000110101100110000111100001 O
b1 H
b1100111001100111001000011001 M
b1 J
0:
b101110010110000100100101011100 N
b11101 K
b1110000010000000100000011100 6
b11111110110111100110100111111101 ;
b11110000110101100110000111100001 B
b1100111001100111001000011001 P
b0 Q
b0 (
b0 5
b11011110100011100010100010111101 =
b11011110100011100010100010111101 *
b11011110100011100010100010111101 ?
b11011110100011100010100010111101 A
b101110010110000100100101011100 <
b1100111001100111001000011001 R
b1001111110010100010000010011111 C
b10000000000000000000000000000000 I
b1 D
b1 E
1F
b101110010110000100100101011100 )
b101110010110000100100101011100 >
b101110010110000100100101011100 @
b1101 N"
b110100 2
b110100 4
1/
#1450000
0/
#1462500
b111001 0
0'
1%
08
b0 &
b0 L
b101110010110000100100101011100 M
b0 H
17
b1000 (
b1000 5
1/
#1475000
0/
#1487500
b111010 0
0%
b1 &
b1 L
1:
b1110000010000000100000011100 O
b1 H
07
b110 (
b110 5
1/
#1500000
0/
#1512500
b111011 0
b11011110100011100010100010111101 M
b1001111110010100010000010011111 P
b11111110110111100110100111111101 O
b11011110100011100010100010111101 N
b1 Q
b111 (
b111 5
1/
#1525000
0/
#1537500
b111100 0
1'
b1001001010100100111111010010010 &
b1001001010100100111111010010010 L
18
b100100000011000111111001001000 O
b11111100101101010101101011000001 H
b1001001010100100111111010010010 M
b11111100101101010101101011000001 J
0:
b10010110101010110101100000101101 N
b101 K
b10010010101000110000000000100101 6
b10110110101011110111111001101101 ;
b100100000011000111111001001000 B
b1001001010100100111111010010010 P
b0 (
b0 5
b10110010101001110010011001100101 =
b10110010101001110010011001100101 *
b10110010101001110010011001100101 ?
b10110010101001110010011001100101 A
b10010110101010110101100000101101 <
b1001001010100100111111010010010 R
b11100100000001000011000111001000 C
b11010101011010110000010110100000 I
b100101101010101101011000001 D
b11111100101101010101101011000001 E
1G
b10010110101010110101100000101101 )
b10010110101010110101100000101101 >
b10010110101010110101100000101101 @
b1110 N"
b111000 2
b111000 4
1/
#1550000
0/
#1562500
b111101 0
0'
08
b1 &
b1 L
b10010110101010110101100000101101 M
b1 H
17
b1000 (
b1000 5
1/
#1575000
0/
#1587500
b111110 0
b100101101010101101011000001 &
b100101101010101101011000001 L
b100101101010101101011000001 J
1:
b10010010101000110000000000100101 O
b100101101010101101011000001 H
07
b110 (
b110 5
1/
#1600000
0/
#1612500
b111111 0
b11111100101101010101101011000001 &
b11111100101101010101101011000001 L
b11111100101101010101101011000001 H
b10110010101001110010011001100101 M
b11111100101101010101101011000001 J
b11100100000001000011000111001000 P
b10110110101011110111111001101101 O
b10110010101001110010011001100101 N
b111 (
b111 5
1/
#1625000
0/
#1637500
b1000000 0
1'
b10110111011000101110100101101101 &
b10110111011000101110100101101101 L
18
b10110100100111001110010101101001 O
b11111111111011000111101111011000 H
b10110111011000101110100101101101 M
b11111111111011000111101111011000 J
0:
b10110001111011110110001001100011 N
b1010 K
b1 Q
b1011000110000001000000010 6
b10110101111111111110011101101011 ;
b10110100100111001110010101101001 B
b10110111011000101110100101101101 P
b0 (
b0 5
b101011100111000011100001010 =
0F
b101011100111000011100001010 *
b101011100111000011100001010 ?
b101011100111000011100001010 A
b10110001111011110110001001100011 <
b10110111011000101110100101101101 R
b10101100011110111101101101011001 C
b10111101100010011000110000000000 I
b1011000111101111011000 D
b11111111111011000111101111011000 E
b10110001111011110110001001100011 )
b10110001111011110110001001100011 >
b10110001111011110110001001100011 @
b1111 N"
b111100 2
b111100 4
1/
#1650000
0/
#1662500
b1000001 0
0'
08
b1 &
b1 L
b10110001111011110110001001100011 M
b1 H
17
b1000 (
b1000 5
1/
#1675000
0/
#1687500
b1000010 0
b1011000111101111011000 &
b1011000111101111011000 L
b1011000111101111011000 J
1:
b1011000110000001000000010 O
b1011000111101111011000 H
07
b110 (
b110 5
1/
#1700000
0/
#1712500
b1000011 0
b11111111111011000111101111011000 &
b11111111111011000111101111011000 L
b11111111111011000111101111011000 H
b101011100111000011100001010 M
b11111111111011000111101111011000 J
b10101100011110111101101101011001 P
b10110101111111111110011101101011 O
b101011100111000011100001010 N
b0 Q
b111 (
b111 5
1/
#1725000
0/
