Software/performance_testbench.vcd
$date
	Sun May 25 11:48:53 2025
$end
$version
	Icarus Verilog
$end
$timescale
	1ps
$end
$scope module performance_testbench $end
$var wire 1 ! alu_slow_ready $end
$var wire 1 " branch_predict $end
$var wire 32 # imm_result [31:0] $end
$var wire 1 $ branch_taken $end
$var wire 1 % alu_zero $end
$var wire 32 & alu_result [31:0] $end
$var wire 1 ' alu_fast_ready $end
$var reg 4 ( alu_op [3:0] $end
$var reg 32 ) alu_src1 [31:0] $end
$var reg 32 * alu_src2 [31:0] $end
$var reg 32 + benchmark_select [31:0] $end
$var reg 3 , branch_funct3 [2:0] $end
$var reg 32 - branch_rs1 [31:0] $end
$var reg 32 . branch_rs2 [31:0] $end
$var reg 1 / clk $end
$var reg 32 0 cycle_count [31:0] $end
$var reg 32 1 imm_instruction [31:0] $end
$var reg 32 2 pass_count [31:0] $end
$var reg 1 3 rst_n $end
$var reg 32 4 test_count [31:0] $end
$scope module alu_test $end
$var wire 4 5 alu_op [3:0] $end
$var wire 32 6 and_result [31:0] $end
$var wire 1 ' fast_ready $end
$var wire 1 7 is_compare_op $end
$var wire 1 8 is_fast_op $end
$var wire 1 9 is_logic_op $end
$var wire 1 : is_shift_op $end
$var wire 32 ; or_result [31:0] $end
$var wire 32 < pass_a_result [31:0] $end
$var wire 32 = pass_b_result [31:0] $end
$var wire 32 > signed_src1 [31:0] $end
$var wire 32 ? signed_src2 [31:0] $end
$var wire 1 ! slow_ready $end
$var wire 32 @ src1 [31:0] $end
$var wire 32 A src2 [31:0] $end
$var wire 32 B xor_result [31:0] $end
$var wire 1 % zero $end
$var wire 32 C sub_result [31:0] $end
$var wire 32 D srl_result [31:0] $end
$var wire 32 E sra_result [31:0] $end
$var wire 1 F sltu_result $end
$var wire 1 G slt_result $end
$var wire 32 H slow_result [31:0] $end
$var wire 32 I sll_result [31:0] $end
$var wire 32 J shift_result [31:0] $end
$var wire 5 K shamt [4:0] $end
$var wire 32 L result [31:0] $end
$var wire 32 M fast_result [31:0] $end
$var wire 32 N fast_pass_result [31:0] $end
$var wire 32 O fast_logic_result [31:0] $end
$var wire 32 P fast_arith_result [31:0] $end
$var wire 32 Q compare_result [31:0] $end
$var wire 32 R add_result [31:0] $end
$var parameter 4 S ALU_ADD $end
$var parameter 4 T ALU_AND $end
$var parameter 4 U ALU_OR $end
$var parameter 4 V ALU_PASS_A $end
$var parameter 4 W ALU_PASS_B $end
$var parameter 4 X ALU_SLL $end
$var parameter 4 Y ALU_SLT $end
$var parameter 4 Z ALU_SLTU $end
$var parameter 4 [ ALU_SRA $end
$var parameter 4 \ ALU_SRL $end
$var parameter 4 ] ALU_SUB $end
$var parameter 4 ^ ALU_XOR $end
$var parameter 32 _ DATA_WIDTH $end
$upscope $end
$scope module branch_test $end
$var wire 3 ` funct3 [2:0] $end
$var wire 1 a ne_result $end
$var wire 1 " predict_taken $end
$var wire 32 b rs1_data [31:0] $end
$var wire 32 c rs2_data [31:0] $end
$var wire 1 d sge_result $end
$var wire 32 e signed_rs1 [31:0] $end
$var wire 32 f signed_rs2 [31:0] $end
$var wire 1 g uge_result $end
$var wire 1 h ult_result $end
$var wire 1 i slt_result $end
$var wire 1 j eq_result $end
$var wire 6 k comparison_results [5:0] $end
$var wire 1 $ branch_taken $end
$var parameter 3 l BEQ $end
$var parameter 3 m BGE $end
$var parameter 3 n BGEU $end
$var parameter 3 o BLT $end
$var parameter 3 p BLTU $end
$var parameter 3 q BNE $end
$upscope $end
$scope module imm_test $end
$var wire 32 r instruction [31:0] $end
$var wire 1 s sel_ab $end
$var wire 1 t sel_cd $end
$var wire 1 u sel_i $end
$var wire 1 v sel_u $end
$var wire 32 w u_imm [31:0] $end
$var wire 1 x sel_s $end
$var wire 1 y sel_j $end
$var wire 1 z sel_b $end
$var wire 12 { s_imm_parts [11:0] $end
$var wire 32 | s_imm [31:0] $end
$var wire 32 } result_cd [31:0] $end
$var wire 32 ~ result_ab [31:0] $end
$var wire 7 !" opcode [6:0] $end
$var wire 32 "" mux_c [31:0] $end
$var wire 32 #" mux_b [31:0] $end
$var wire 32 $" mux_a [31:0] $end
$var wire 20 %" j_imm_parts [19:0] $end
$var wire 32 &" j_imm [31:0] $end
$var wire 32 '" immediate [31:0] $end
$var wire 32 (" i_imm [31:0] $end
$var wire 12 )" b_imm_parts [11:0] $end
$var wire 32 *" b_imm [31:0] $end
$var parameter 32 +" DATA_WIDTH $end
$upscope $end
$scope task display_performance_results $end
$var real 1 ," benchmark_score $end
$var real 1 -" cpi_estimate $end
$var real 1 ." frequency_mhz $end
$var real 1 /" mips_estimate $end
$upscope $end
$scope task test_alu_performance $end
$var reg 32 0" end_cycle [31:0] $end
$var reg 32 1" start_cycle [31:0] $end
$var integer 32 2" i [31:0] $end
$upscope $end
$scope task test_branch_performance $end
$var reg 32 3" end_cycle [31:0] $end
$var reg 32 4" start_cycle [31:0] $end
$var integer 32 5" i [31:0] $end
$upscope $end
$scope task test_dhrystone_simulation $end
$var reg 32 6" dhrystone_iterations [31:0] $end
$var reg 32 7" end_cycle [31:0] $end
$var reg 32 8" start_cycle [31:0] $end
$var integer 32 9" i [31:0] $end
$upscope $end
$scope task test_fibonacci_performance $end
$var reg 32 :" end_cycle [31:0] $end
$var reg 32 ;" fib_a [31:0] $end
$var reg 32 <" fib_b [31:0] $end
$var reg 32 =" fib_c [31:0] $end
$var reg 32 >" start_cycle [31:0] $end
$var integer 32 ?" i [31:0] $end
$upscope $end
$scope task test_immediate_performance $end
$var reg 32 @" end_cycle [31:0] $end
$var reg 32 A" start_cycle [31:0] $end
$var integer 32 B" i [31:0] $end
$upscope $end
$scope task test_memory_intensive $end
$var reg 32 C" end_cycle [31:0] $end
$var reg 32 D" start_cycle [31:0] $end
$var integer 32 E" i [31:0] $end
$upscope $end
$scope task test_sorting_performance $end
$var reg 32 F" end_cycle [31:0] $end
$var reg 32 G" start_cycle [31:0] $end
$var reg 32 H" temp [31:0] $end
$var integer 32 I" i [31:0] $end
$var integer 32 J" j [31:0] $end
$upscope $end
$scope task test_whetstone_simulation $end
$var reg 32 K" end_cycle [31:0] $end
$var reg 32 L" start_cycle [31:0] $end
$var reg 32 M" whetstone_iterations [31:0] $end
$var integer 32 N" i [31:0] $end
$upscope $end
$upscope $end
$enddefinitions $end
$comment Show the parameter values. $end
$dumpall
b100000 +"
b1 q
b110 p
b100 o
b111 n
b101 m
b0 l
b100000 _
b100 ^
b1 ]
b110 \
b111 [
b1001 Z
b1000 Y
b101 X
b1011 W
b1010 V
b11 U
b10 T
b0 S
$end
#0
$dumpvars
bx N"
bx M"
bx L"
bx K"
bx J"
bx I"
bx H"
bx G"
bx F"
bx E"
bx D"
bx C"
bx B"
bx A"
bx @"
bx ?"
bx >"
bx ="
bx <"
bx ;"
bx :"
bx 9"
bx 8"
bx 7"
bx 6"
bx 5"
bx 4"
bx 3"
bx 2"
bx 1"
bx 0"
r0 /"
r0 ."
r0 -"
r0 ,"
bx0 *"
bx )"
bx ("
bx '"
bx0 &"
bx %"
bx $"
bx0 #"
bx000000000000 ""
bx !"
bx ~
bx0 }
bx |
bx {
xz
xy
xx
bx000000000000 w
xv
xu
xt
xs
bx r
bx k
xj
xi
xh
xg
bx f
bx e
xd
bx c
bx b
xa
bx `
bx R
b0x Q
bx P
bx O
bx N
bx M
bx L
bx K
bx J
bx I
bx H
xG
xF
bx E
bx D
bx C
bx B
bx A
bx @
bx ?
bx >
bx =
bx <
bx ;
x:
x9
x8
x7
bx 6
bx 5
b0 4
03
b0 2
bx 1
b0 0
0/
bx .
bx -
bx ,
b101 +
bx *
bx )
bx (
x'
bx &
x%
x$
bx #
1"
1!
$end
#5000
1/
#10000
0/
#15000
1/
#20000
0/
#25000
1/
#30000
0/
#35000
1/
#40000
0/
#45000
1/
#50000
0/
13
#55000
b1 0
1/
#60000
0/
#65000
b10 0
1/
#70000
0/
#75000
b11 0
1/
#80000
0/
#85000
b100 0
1/
#90000
0/
#95000
b101 0
1/
#100000
0/
#105000
b110 0
1/
#110000
0/
#115000
b111 0
1/
#120000
0/
#125000
b1000 0
1/
#130000
0/
#135000
b1001 0
1/
#140000
0/
#145000
b1010 0
1/
#150000
0'
0%
b1 &
b1 L
08
09
0:
b10010 J
b1 H
b10100101 O
b100100 M
17
b10100101 P
b1001000 I
b10010 D
b10010 E
b1 K
b1 Q
b0 6
b10100101 ;
b10100101 B
b100100 N
0/
b1000 (
b1000 5
b10000001 =
b10100101 R
b11111111111111111111111110100011 C
1G
1F
b10000001 *
b10000001 ?
b10000001 A
b100100 <
b100100 )
b100100 >
b100100 @
b0 J"
b0 I"
b1010 G"
#155000
b1011 0
1%
b0 &
b0 L
b10001000 O
b10000001 M
b0 J
b0 H
b1001 K
b1 6
b10001001 ;
b10001000 B
b10000001 N
b10001010 P
b0 Q
b1001 =
b1001 *
b1001 ?
b1001 A
b10000001 <
b10001010 R
b1111000 C
b10000001000000000 I
b0 D
b0 E
0G
0F
b10000001 )
b10000001 >
b10000001 @
b1 J"
b1 2
b1 4
1/
#160000
0/
#165000
b1100 0
b11100010 O
b10000 J
b11100011 ;
b11100010 B
b11100100 P
b10000001000 I
b10000 D
b10000 E
b11 K
b1100011 =
b11100100 R
b11110 C
b1100011 *
b1100011 ?
b1100011 A
b10 J"
b10 2
b10 4
b10000001 H"
1/
#170000
0/
#175000
b1101 0
b10001100 O
b0 J
b10001101 ;
b10001100 B
b10001110 P
b100000010000000000000 I
b0 D
b0 E
b1101 K
b1101 =
b10001110 R
b1110100 C
b1101 *
b1101 ?
b1101 A
b11 J"
b11 2
b11 4
1/
#180000
0/
#185000
b1110 0
0%
b1 &
b1 L
b1100 O
b1 H
b10000001 6
b1100 B
b100001110 P
b1 Q
b10001101 =
b100001110 R
b11111111111111111111111111110100 C
1G
1F
b10001101 *
b10001101 ?
b10001101 A
b100 J"
b100 2
b100 4
1/
#190000
0/
#195000
b1111 0
1%
b0 &
b0 L
b100 J
b11101000 O
b10001101 M
b0 H
b100 D
b100 E
b101 K
b101 6
b11101101 ;
b11101000 B
b10001101 N
b11110010 P
b0 Q
b1100101 =
b1100101 *
b1100101 ?
b1100101 A
b10001101 <
b11110010 R
b101000 C
b1000110100000 I
0G
0F
b10001101 )
b10001101 >
b10001101 @
b101 J"
b101 2
b101 4
1/
#200000
0/
#205000
b10000 0
b10011111 O
b0 J
b0 6
b10011111 ;
b10011111 B
b10011111 P
b10001101000000000000000000 I
b0 D
b0 E
b10010 K
b10010 =
b10011111 R
b1111011 C
b10010 *
b10010 ?
b10010 A
b110 J"
b110 2
b110 4
b10001101 H"
1/
#210000
0/
#215000
b10001 0
b101101 O
b100100 M
b1001 K
b101101 ;
b101101 B
b100100 N
b101101 P
b1001 =
b1001 *
b1001 ?
b1001 A
b100100 <
b101101 R
b11011 C
b100100000000000 I
b100100 )
b100100 >
b100100 @
b1 I"
b0 J"
b111 2
b111 4
1/
#220000
0/
#225000
b10010 0
0%
b1 &
b1 L
b1000111 O
b100 J
b1 H
b100000 6
b1100111 ;
b1000111 B
b10000111 P
b100100000 I
b100 D
b100 E
b11 K
b1 Q
b1100011 =
b10000111 R
b11111111111111111111111111000001 C
1G
1F
b1100011 *
b1100011 ?
b1100011 A
b1 J"
b1000 2
b1000 4
b100100 H"
1/
#230000
0/
#235000
b10011 0
1%
b0 &
b0 L
b1101110 O
b1100011 M
b0 J
b0 H
b1101 K
b1 6
b1101111 ;
b1101110 B
b1100011 N
b1110000 P
b0 Q
b1101 =
b1101 *
b1101 ?
b1101 A
b1100011 <
b1110000 R
b1010110 C
b11000110000000000000 I
b0 D
b0 E
0G
0F
b1100011 )
b1100011 >
b1100011 @
b10 J"
b1001 2
b1001 4
1/
#240000
0/
#245000
b10100 0
0%
b1 &
b1 L
b11100010 O
b110001 J
b1 H
b11100011 ;
b11100010 B
b11100100 P
b11000110 I
b110001 D
b110001 E
b1 K
b1 Q
b10000001 =
b11100100 R
b11111111111111111111111111100010 C
1G
1F
b10000001 *
b10000001 ?
b10000001 A
b11 J"
b1010 2
b1010 4
b1100011 H"
1/
#250000
0/
#255000
b10101 0
1%
b0 &
b0 L
b11100100 O
b10000001 M
b100 J
b0 H
b101 K
b11100101 ;
b11100100 B
b10000001 N
b11100110 P
b0 Q
b1100101 =
b1100101 *
b1100101 ?
b1100101 A
b10000001 <
b11100110 R
b11100 C
b1000000100000 I
b100 D
b100 E
0G
0F
b10000001 )
b10000001 >
b10000001 @
b100 J"
b1011 2
b1011 4
1/
#260000
0/
#265000
b10110 0
b10010011 O
b0 J
b0 6
b10010011 ;
b10010011 B
b10010011 P
b10000001000000000000000000 I
b0 D
b0 E
b10010 K
b10010 =
b10010011 R
b1101111 C
b10010 *
b10010 ?
b10010 A
b101 J"
b1100 2
b1100 4
b10000001 H"
1/
#270000
0/
#275000
b10111 0
0%
b1 &
b1 L
b101101 O
b1001 M
b1 H
b100 K
b101101 ;
b101101 B
b1001 N
b101101 P
b1 Q
b100100 =
b100100 *
b100100 ?
b100100 A
b1001 <
b101101 R
b11111111111111111111111111100101 C
b10010000 I
1G
1F
b1001 )
b1001 >
b1001 @
b10 I"
b0 J"
b1101 2
b1101 4
1/
#280000
0/
#285000
b11000 0
1%
b0 &
b0 L
b101001 O
b100100 M
b0 J
b0 H
b1101 K
b100 6
b101001 B
b100100 N
b110001 P
b0 Q
b1101 =
b1101 *
b1101 ?
b1101 A
b100100 <
b110001 R
b10111 C
b1001000000000000000 I
b0 D
b0 E
0G
0F
b100100 )
b100100 >
b100100 @
b1 J"
b1110 2
b1110 4
1/
#290000
0/
#295000
b11001 0
0%
b1 &
b1 L
b1000111 O
b100 J
b1 H
b100000 6
b1100111 ;
b1000111 B
b10000111 P
b100100000 I
b100 D
b100 E
b11 K
b1 Q
b1100011 =
b10000111 R
b11111111111111111111111111000001 C
1G
1F
b1100011 *
b1100011 ?
b1100011 A
b10 J"
b1111 2
b1111 4
b100100 H"
1/
#300000
0/
#305000
b11010 0
b110 O
b1100011 M
b11 J
b101 K
b1100001 6
b110 B
b1100011 N
b11001000 P
b1100101 =
b1100101 *
b1100101 ?
b1100101 A
b1100011 <
b11001000 R
b11111111111111111111111111111110 C
b110001100000 I
b11 D
b11 E
1G
1F
b1100011 )
b1100011 >
b1100011 @
b11 J"
b10000 2
b10000 4
1/
#310000
0/
#315000
b11011 0
1%
b0 &
b0 L
b0 J
b1110111 O
b1100101 M
b0 H
b0 D
b0 E
b10010 K
b0 6
b1110111 ;
b1110111 B
b1100101 N
b1110111 P
b0 Q
b10010 =
b10010 *
b10010 ?
b10010 A
b1100101 <
b1110111 R
b1010011 C
b1100101000000000000000000 I
0G
0F
b1100101 )
b1100101 >
b1100101 @
b100 J"
b10001 2
b10001 4
1/
#320000
0/
#325000
b11100 0
0%
b1 &
b1 L
b100 O
b1001 M
b1 H
b1101 K
b1001 6
b1101 ;
b100 B
b1001 N
b10110 P
b1 Q
b1101 =
b1101 *
b1101 ?
b1101 A
b1001 <
b10110 R
b11111111111111111111111111111100 C
b10010000000000000 I
1G
1F
b1001 )
b1001 >
b1001 @
b11 I"
b0 J"
b10010 2
b10010 4
b1100101 H"
1/
#330000
0/
#335000
b11101 0
b101001 O
b1101 M
b100 K
b100 6
b101101 ;
b101001 B
b1101 N
b110001 P
b100100 =
b100100 *
b100100 ?
b100100 A
b1101 <
b110001 R
b11111111111111111111111111101001 C
b11010000 I
1G
1F
b1101 )
b1101 >
b1101 @
b1 J"
b10011 2
b10011 4
1/
#340000
0/
#345000
b11110 0
b1000111 O
b100100 M
b100 J
b11 K
b100000 6
b1100111 ;
b1000111 B
b100100 N
b10000111 P
b1100011 =
b1100011 *
b1100011 ?
b1100011 A
b100100 <
b10000111 R
b11111111111111111111111111000001 C
b100100000 I
b100 D
b100 E
1G
1F
b100100 )
b100100 >
b100100 @
b10 J"
b10100 2
b10100 4
1/
#350000
0/
#355000
b11111 0
1%
b0 &
b0 L
b1110001 O
b1100011 M
b0 J
b0 H
b10010 K
b10 6
b1110011 ;
b1110001 B
b1100011 N
b1110101 P
b0 Q
b10010 =
b10010 *
b10010 ?
b10010 A
b1100011 <
b1110101 R
b1010001 C
b1100011000000000000000000 I
b0 D
b0 E
0G
0F
b1100011 )
b1100011 >
b1100011 @
b11 J"
b10101 2
b10101 4
1/
#360000
0/
#365000
b100000 0
0%
b1 &
b1 L
b100 O
b1001 M
b1 H
b1101 K
b1001 6
b1101 ;
b100 B
b1001 N
b10110 P
b1 Q
b1101 =
b1101 *
b1101 ?
b1101 A
b1001 <
b10110 R
b11111111111111111111111111111100 C
b10010000000000000 I
1G
1F
b1001 )
b1001 >
b1001 @
b100 I"
b0 J"
b10110 2
b10110 4
b1100011 H"
1/
#370000
0/
#375000
b100001 0
b101001 O
b1101 M
b100 K
b100 6
b101101 ;
b101001 B
b1101 N
b110001 P
b100100 =
b100100 *
b100100 ?
b100100 A
b1101 <
b110001 R
b11111111111111111111111111101001 C
b11010000 I
1G
1F
b1101 )
b1101 >
b1101 @
b1 J"
b10111 2
b10111 4
1/
#380000
0/
#385000
b100010 0
1%
b0 &
b0 L
b110110 O
b100100 M
b0 J
b0 H
b10010 K
b0 6
b110110 ;
b110110 B
b100100 N
b110110 P
b0 Q
b10010 =
b10010 *
b10010 ?
b10010 A
b100100 <
b110110 R
b10010 C
b100100000000000000000000 I
b0 D
b0 E
0G
0F
b100100 )
b100100 >
b100100 @
b10 J"
b11000 2
b11000 4
1/
#390000
0/
#395000
b100011 0
0%
b1 &
b1 L
b100 O
b1001 M
b1 H
b1101 K
b1001 6
b1101 ;
b100 B
b1001 N
b10110 P
b1 Q
b1101 =
b1101 *
b1101 ?
b1101 A
b1001 <
b10110 R
b11111111111111111111111111111100 C
b10010000000000000 I
1G
1F
b1001 )
b1001 >
b1001 @
b101 I"
b0 J"
b11001 2
b11001 4
b100100 H"
1/
#400000
0/
#405000
b100100 0
b11111 O
b1101 M
b10010 K
b0 6
b11111 ;
b11111 B
b1101 N
b11111 P
b10010 =
b10010 *
b10010 ?
b10010 A
b1101 <
b11111 R
b11111111111111111111111111111011 C
b1101000000000000000000 I
1G
1F
b1101 )
b1101 >
b1101 @
b1 J"
b11010 2
b11010 4
1/
#410000
0/
#415000
b100101 0
b100 O
b1001 M
b1101 K
b1001 6
b1101 ;
b100 B
b1001 N
b10110 P
b1101 =
b1101 *
b1101 ?
b1101 A
b1001 <
b10110 R
b11111111111111111111111111111100 C
b10010000000000000 I
b1001 )
b1001 >
b1001 @
b110 I"
b0 J"
b11011 2
b11011 4
1/
#420000
0/
#425000
b100110 0
b100101 F"
b111 I"
b1 J"
b11100 2
b11100 4
1/
#430000
0/
#435000
b100111 0
1/
#440000
0/
#445000
b101000 0
1/
#450000
0/
#455000
b101001 0
1/
#460000
0/
#465000
b101010 0
1/
#470000
0/
#475000
b101011 0
1/
#480000
0/
#485000
b101100 0
1/
#490000
0/
#495000
b101101 0
1/
#500000
0/
#505000
b101110 0
1/
#510000
0/
#515000
b101111 0
1/
#520000
0/
#525000
b110000 0
1/
r59.57446808510638 /"
r1.678571428571429 -"
r100 ."
