Software/testbench_fixed.vcd
$date
	Sun May 25 08:29:30 2025
$end
$version
	Icarus Verilog
$end
$timescale
	1ps
$end
$scope module testbench_fixed $end
$var reg 1 ! clk $end
$var reg 1 " rst_n $end
$var reg 1 # test_bootloader_active $end
$var reg 8 $ test_uart_data [7:0] $end
$var reg 1 % test_uart_ready $end
$var reg 8 & uart_data_in [7:0] $end
$var reg 1 ' uart_write_en $end
$var integer 32 ( fail_count [31:0] $end
$var integer 32 ) pass_count [31:0] $end
$var integer 32 * test_count [31:0] $end
$scope task test_uart_send $end
$var reg 8 + data [7:0] $end
$var reg 128 , test_name [127:0] $end
$upscope $end
$upscope $end
$enddefinitions $end
$comment Show the parameter values. $end
$dumpall
$end
#0
$dumpvars
bx ,
bx +
b0 *
b0 )
b0 (
x'
bx &
x%
bx $
x#
0"
0!
$end
#5000
1#
0%
b0 $
1!
#10000
0!
#15000
1!
#20000
0!
1"
#25000
1!
#30000
0!
0'
b11011110 &
b1 *
b10011010110000101100111011010010110001100100000011000100111100101110100011001010010000000110001 ,
b11011110 +
#35000
1%
b11011110 $
1'
1!
#40000
0!
#45000
0%
0'
1!
#50000
0!
#55000
b10101101 &
b10 *
b10011010110000101100111011010010110001100100000011000100111100101110100011001010010000000110010 ,
b10101101 +
b1 )
1!
#60000
0!
#65000
1%
b10101101 $
1'
1!
#70000
0!
#75000
0%
0'
1!
#80000
0!
#85000
b10111110 &
b11 *
b10011010110000101100111011010010110001100100000011000100111100101110100011001010010000000110011 ,
b10111110 +
b10 )
1!
#90000
0!
#95000
1%
b10111110 $
1'
1!
#100000
0!
#105000
0%
0'
1!
#110000
0!
#115000
b11101111 &
b100 *
b10011010110000101100111011010010110001100100000011000100111100101110100011001010010000000110100 ,
b11101111 +
b11 )
1!
#120000
0!
#125000
1%
b11101111 $
1'
1!
#130000
0!
#135000
0%
0'
1!
#140000
0!
#145000
b10011 &
b101 *
b101000001110010011011110110011101110010011000010110110100100000011000100111100101110100011001010010000000110001 ,
b10011 +
b100 )
1!
#150000
0!
#155000
1%
b10011 $
1'
1!
#160000
0!
#165000
0%
0'
1!
#170000
0!
#175000
b0 &
b110 *
b101000001110010011011110110011101110010011000010110110100100000011000100111100101110100011001010010000000110010 ,
b0 +
b101 )
1!
#180000
0!
#185000
1%
b0 $
1'
1!
#190000
0!
#195000
0%
0'
1!
#200000
0!
#205000
b111 *
b101000001110010011011110110011101110010011000010110110100100000011000100111100101110100011001010010000000110011 ,
b110 )
1!
#210000
0!
#215000
1%
1'
1!
#220000
0!
#225000
0%
0'
1!
#230000
0!
#235000
b1000 *
b101000001110010011011110110011101110010011000010110110100100000011000100111100101110100011001010010000000110100 ,
b111 )
1!
#240000
0!
#245000
1%
1'
1!
#250000
0!
#255000
0%
0'
1!
#260000
0!
#265000
b1000 )
1!
